*********ESTA ES LA CLASE ESTILOS.CSS*********


/*
To change this license header, choose License Headers in Project Properties.
To change this template file, choose Tools | Templates
and open the template in the editor.
*/
/* 
    Created on : 30/09/2018, 11:59:56 PM
    Author     : CHALAZITO
*/

body{
        background-image: url(../imagenes/fondo.gif);
	background-size: 100% 100%;
	background-attachment: fixed;
}

button
{
      background-color: #61DFF3;
}

#imgFoto
{
    border-radius: 50px;
    
}




*********ESTE ES EL LINK DE  LA CLASE*********

<link rel="stylesheet" type="text/css" href="css/estilos.css">





*********ESTE ES EL CASO O EL SELECTOR DEL DROWNDAUN*********

function ddlReproductores()
        {
            var Reproductores = 0;
            var lista;
            var opcion = ""
            
            Reproductores = parseFloat(document.getElementById('Drauon').value);
            
        switch (Reproductores)
        {
            case 1:if (Reproductores = 1)
            {
                 lista = "Seleciona un Elemento";
                 document.getElementById('imgFoto').src = "";
            }
            break;
            
            case 2:if (Reproductores = 2)
            {
                 lista = 90000;
                 document.getElementById('imgFoto').src = "imagenes/img11.png";
            }
            break;
            
            case 3:if (Reproductores = 3)
            {
                 lista = 180000;
                 document.getElementById('imgFoto').src = "imagenes/img13.png";
            }
            break;
            
            case 4:if (Reproductores = 4)
            {
                 lista = 600000;
                 document.getElementById('imgFoto').src = "imagenes/img12.png";
            }
            break;
        };
        opcion = lista
        document.getElementById('txtValor').value = opcion;
        }